ARM GAS  /tmp/ccZWv9k3.s 			page 1


   1              		.syntax unified
   2              		.cpu cortex-m3
   3              		.fpu softvfp
   4              		.eabi_attribute 20, 1
   5              		.eabi_attribute 21, 1
   6              		.eabi_attribute 23, 3
   7              		.eabi_attribute 24, 1
   8              		.eabi_attribute 25, 1
   9              		.eabi_attribute 26, 1
  10              		.eabi_attribute 30, 2
  11              		.eabi_attribute 34, 1
  12              		.eabi_attribute 18, 4
  13              		.thumb
  14              		.file	"testpools.c"
  15              		.text
  16              	.Ltext0:
  17              		.cfi_sections	.debug_frame
  18              		.section	.text.null_provider,"ax",%progbits
  19              		.align	2
  20              		.p2align 4,,15
  21              		.thumb
  22              		.thumb_func
  23              		.type	null_provider, %function
  24              	null_provider:
  25              	.LFB7:
  26              		.file 1 "../../test/testpools.c"
  27              		.loc 1 71 0
  28              		.cfi_startproc
  29              		@ args = 0, pretend = 0, frame = 0
  30              		@ frame_needed = 0, uses_anonymous_args = 0
  31              		@ link register save eliminated.
  32              	.LVL0:
  33              		.loc 1 75 0
  34 0000 0020     		movs	r0, #0
  35              	.LVL1:
  36 0002 7047     		bx	lr
  37              		.cfi_endproc
  38              	.LFE7:
  39              		.size	null_provider, .-null_provider
  40 0004 AFF30080 		.section	.text.pools1_setup,"ax",%progbits
  40      AFF30080 
  40      AFF30080 
  41              		.align	2
  42              		.p2align 4,,15
  43              		.thumb
  44              		.thumb_func
  45              		.type	pools1_setup, %function
  46              	pools1_setup:
  47              	.LFB8:
  48              		.loc 1 77 0
  49              		.cfi_startproc
  50              		@ args = 0, pretend = 0, frame = 0
  51              		@ frame_needed = 0, uses_anonymous_args = 0
  52              		@ link register save eliminated.
  53              		.loc 1 79 0
  54 0000 40F20000 		movw	r0, #:lower16:.LANCHOR0
  55 0004 C0F20000 		movt	r0, #:upper16:.LANCHOR0
ARM GAS  /tmp/ccZWv9k3.s 			page 2


  56 0008 4FF49871 		mov	r1, #304
  57 000c 0022     		movs	r2, #0
  58              		.loc 1 80 0
  59              		.loc 1 79 0
  60 000e FFF7FEBF 		b	chPoolInit
  61              		.cfi_endproc
  62              	.LFE8:
  63              		.size	pools1_setup, .-pools1_setup
  64 0012 00BFAFF3 		.section	.text.pools1_execute,"ax",%progbits
  64      0080AFF3 
  64      0080AFF3 
  64      0080
  65              		.align	2
  66              		.p2align 4,,15
  67              		.thumb
  68              		.thumb_func
  69              		.type	pools1_execute, %function
  70              	pools1_execute:
  71              	.LFB9:
  72              		.loc 1 82 0
  73              		.cfi_startproc
  74              		@ args = 0, pretend = 0, frame = 0
  75              		@ frame_needed = 0, uses_anonymous_args = 0
  76              	.LVL2:
  77 0000 10B5     		push	{r4, lr}
  78              	.LCFI0:
  79              		.cfi_def_cfa_offset 8
  80              		.cfi_offset 14, -4
  81              		.cfi_offset 4, -8
  82              		.loc 1 87 0
  83 0002 40F20004 		movw	r4, #:lower16:wa
  84 0006 C0F20004 		movt	r4, #:upper16:wa
  85 000a 40F20000 		movw	r0, #:lower16:.LANCHOR0
  86 000e C0F20000 		movt	r0, #:upper16:.LANCHOR0
  87 0012 2168     		ldr	r1, [r4, #0]
  88 0014 FFF7FEFF 		bl	chPoolFree
  89              	.LVL3:
  90 0018 40F20000 		movw	r0, #:lower16:.LANCHOR0
  91 001c C0F20000 		movt	r0, #:upper16:.LANCHOR0
  92 0020 6168     		ldr	r1, [r4, #4]
  93 0022 FFF7FEFF 		bl	chPoolFree
  94              	.LVL4:
  95 0026 40F20000 		movw	r0, #:lower16:.LANCHOR0
  96 002a C0F20000 		movt	r0, #:upper16:.LANCHOR0
  97 002e A168     		ldr	r1, [r4, #8]
  98 0030 FFF7FEFF 		bl	chPoolFree
  99              	.LVL5:
 100 0034 40F20000 		movw	r0, #:lower16:.LANCHOR0
 101 0038 C0F20000 		movt	r0, #:upper16:.LANCHOR0
 102 003c E168     		ldr	r1, [r4, #12]
 103 003e FFF7FEFF 		bl	chPoolFree
 104              	.LVL6:
 105 0042 40F20000 		movw	r0, #:lower16:.LANCHOR0
 106 0046 2169     		ldr	r1, [r4, #16]
 107 0048 C0F20000 		movt	r0, #:upper16:.LANCHOR0
 108 004c FFF7FEFF 		bl	chPoolFree
 109              	.LVL7:
ARM GAS  /tmp/ccZWv9k3.s 			page 3


 110              		.loc 1 91 0
 111 0050 40F20000 		movw	r0, #:lower16:.LANCHOR0
 112 0054 C0F20000 		movt	r0, #:upper16:.LANCHOR0
 113 0058 FFF7FEFF 		bl	chPoolAlloc
 114 005c 011C     		adds	r1, r0, #0
 115 005e 18BF     		it	ne
 116 0060 0121     		movne	r1, #1
 117 0062 0120     		movs	r0, #1
 118 0064 FFF7FEFF 		bl	_test_assert
 119 0068 0028     		cmp	r0, #0
 120 006a 41D1     		bne	.L3
 121              	.LVL8:
 122 006c 40F20000 		movw	r0, #:lower16:.LANCHOR0
 123 0070 C0F20000 		movt	r0, #:upper16:.LANCHOR0
 124 0074 FFF7FEFF 		bl	chPoolAlloc
 125 0078 011C     		adds	r1, r0, #0
 126 007a 18BF     		it	ne
 127 007c 0121     		movne	r1, #1
 128 007e 0120     		movs	r0, #1
 129 0080 FFF7FEFF 		bl	_test_assert
 130 0084 A0BB     		cbnz	r0, .L3
 131              	.LVL9:
 132 0086 40F20000 		movw	r0, #:lower16:.LANCHOR0
 133 008a C0F20000 		movt	r0, #:upper16:.LANCHOR0
 134 008e FFF7FEFF 		bl	chPoolAlloc
 135 0092 011C     		adds	r1, r0, #0
 136 0094 18BF     		it	ne
 137 0096 0121     		movne	r1, #1
 138 0098 0120     		movs	r0, #1
 139 009a FFF7FEFF 		bl	_test_assert
 140 009e 38BB     		cbnz	r0, .L3
 141              	.LVL10:
 142 00a0 40F20000 		movw	r0, #:lower16:.LANCHOR0
 143 00a4 C0F20000 		movt	r0, #:upper16:.LANCHOR0
 144 00a8 FFF7FEFF 		bl	chPoolAlloc
 145 00ac 011C     		adds	r1, r0, #0
 146 00ae 18BF     		it	ne
 147 00b0 0121     		movne	r1, #1
 148 00b2 0120     		movs	r0, #1
 149 00b4 FFF7FEFF 		bl	_test_assert
 150 00b8 D0B9     		cbnz	r0, .L3
 151              	.LVL11:
 152 00ba 40F20000 		movw	r0, #:lower16:.LANCHOR0
 153 00be C0F20000 		movt	r0, #:upper16:.LANCHOR0
 154 00c2 FFF7FEFF 		bl	chPoolAlloc
 155 00c6 011C     		adds	r1, r0, #0
 156 00c8 18BF     		it	ne
 157 00ca 0121     		movne	r1, #1
 158 00cc 0120     		movs	r0, #1
 159 00ce FFF7FEFF 		bl	_test_assert
 160 00d2 68B9     		cbnz	r0, .L3
 161              	.LVL12:
 162              		.loc 1 94 0
 163 00d4 40F20000 		movw	r0, #:lower16:.LANCHOR0
 164 00d8 C0F20000 		movt	r0, #:upper16:.LANCHOR0
 165 00dc FFF7FEFF 		bl	chPoolAlloc
 166 00e0 D0F10101 		rsbs	r1, r0, #1
ARM GAS  /tmp/ccZWv9k3.s 			page 4


 167 00e4 38BF     		it	cc
 168 00e6 0021     		movcc	r1, #0
 169 00e8 0220     		movs	r0, #2
 170 00ea FFF7FEFF 		bl	_test_assert
 171 00ee 00B1     		cbz	r0, .L6
 172              	.LVL13:
 173              	.L3:
 174 00f0 10BD     		pop	{r4, pc}
 175              	.LVL14:
 176              	.L6:
 177              	.LBB4:
 178              	.LBB5:
 179              		.loc 1 97 0
 180 00f2 40F20000 		movw	r0, #:lower16:.LANCHOR0
 181 00f6 40F20002 		movw	r2, #:lower16:null_provider
 182 00fa 1021     		movs	r1, #16
 183 00fc C0F20002 		movt	r2, #:upper16:null_provider
 184 0100 C0F20000 		movt	r0, #:upper16:.LANCHOR0
 185 0104 FFF7FEFF 		bl	chPoolInit
 186              		.loc 1 98 0
 187 0108 40F20000 		movw	r0, #:lower16:.LANCHOR0
 188 010c C0F20000 		movt	r0, #:upper16:.LANCHOR0
 189 0110 FFF7FEFF 		bl	chPoolAlloc
 190 0114 D0F10101 		rsbs	r1, r0, #1
 191 0118 38BF     		it	cc
 192 011a 0021     		movcc	r1, #0
 193 011c 0320     		movs	r0, #3
 194              	.LBE5:
 195              	.LBE4:
 196              		.loc 1 99 0
 197 011e BDE81040 		pop	{r4, lr}
 198              	.LBB7:
 199              	.LBB6:
 200              		.loc 1 98 0
 201 0122 FFF7FEBF 		b	_test_assert
 202              	.LBE6:
 203              	.LBE7:
 204              		.cfi_endproc
 205              	.LFE9:
 206              		.size	pools1_execute, .-pools1_execute
 207              		.global	patternpools
 208              		.global	testpools1
 209 0126 00BFAFF3 		.section	.rodata.str1.4,"aMS",%progbits,1
 209      0080AFF3 
 209      0080
 210              		.align	2
 211              	.LC0:
 212 0000 4D656D6F 		.ascii	"Memory Pools, queue/dequeue\000"
 212      72792050 
 212      6F6F6C73 
 212      2C207175 
 212      6575652F 
 213              		.section	.rodata.patternpools,"a",%progbits
 214              		.align	2
 215              		.type	patternpools, %object
 216              		.size	patternpools, 8
 217              	patternpools:
ARM GAS  /tmp/ccZWv9k3.s 			page 5


 218 0000 00000000 		.word	testpools1
 219 0004 00000000 		.word	0
 220              		.section	.data.mp1,"aw",%progbits
 221              		.align	2
 222              		.set	.LANCHOR0,. + 0
 223              		.type	mp1, %object
 224              		.size	mp1, 12
 225              	mp1:
 226 0000 00000000 		.word	0
 227 0004 30010000 		.word	304
 228 0008 00000000 		.word	0
 229              		.section	.rodata.testpools1,"a",%progbits
 230              		.align	2
 231              		.type	testpools1, %object
 232              		.size	testpools1, 16
 233              	testpools1:
 234 0000 00000000 		.word	.LC0
 235 0004 00000000 		.word	pools1_setup
 236 0008 00000000 		.word	0
 237 000c 00000000 		.word	pools1_execute
 238              		.text
 239              	.Letext0:
 240              		.file 2 "/opt/arm-2011q3/bin/../lib/gcc/arm-none-eabi/4.6.1/include/stddef.h"
 241              		.file 3 "../../os/kernel/include/chmemcore.h"
 242              		.file 4 "../../os/kernel/include/chmempools.h"
 243              		.file 5 "../../test/test.h"
 244              		.section	.debug_info,"",%progbits
 245              	.Ldebug_info0:
 246 0000 76020000 		.4byte	0x276
 247 0004 0200     		.2byte	0x2
 248 0006 00000000 		.4byte	.Ldebug_abbrev0
 249 000a 04       		.byte	0x4
 250 000b 01       		.uleb128 0x1
 251 000c 96000000 		.4byte	.LASF25
 252 0010 01       		.byte	0x1
 253 0011 00010000 		.4byte	.LASF26
 254 0015 17010000 		.4byte	.LASF27
 255 0019 00000000 		.4byte	0
 256 001d 00000000 		.4byte	0
 257 0021 30000000 		.4byte	.Ldebug_ranges0+0x30
 258 0025 00000000 		.4byte	.Ldebug_line0
 259 0029 02       		.uleb128 0x2
 260 002a 04       		.byte	0x4
 261 002b 05       		.byte	0x5
 262 002c 696E7400 		.ascii	"int\000"
 263 0030 03       		.uleb128 0x3
 264 0031 00000000 		.4byte	.LASF9
 265 0035 02       		.byte	0x2
 266 0036 D4       		.byte	0xd4
 267 0037 3B000000 		.4byte	0x3b
 268 003b 04       		.uleb128 0x4
 269 003c 04       		.byte	0x4
 270 003d 07       		.byte	0x7
 271 003e C6000000 		.4byte	.LASF0
 272 0042 04       		.uleb128 0x4
 273 0043 01       		.byte	0x1
 274 0044 06       		.byte	0x6
ARM GAS  /tmp/ccZWv9k3.s 			page 6


 275 0045 97010000 		.4byte	.LASF1
 276 0049 04       		.uleb128 0x4
 277 004a 01       		.byte	0x1
 278 004b 08       		.byte	0x8
 279 004c A2000000 		.4byte	.LASF2
 280 0050 04       		.uleb128 0x4
 281 0051 02       		.byte	0x2
 282 0052 05       		.byte	0x5
 283 0053 7F010000 		.4byte	.LASF3
 284 0057 04       		.uleb128 0x4
 285 0058 02       		.byte	0x2
 286 0059 07       		.byte	0x7
 287 005a 75000000 		.4byte	.LASF4
 288 005e 04       		.uleb128 0x4
 289 005f 04       		.byte	0x4
 290 0060 05       		.byte	0x5
 291 0061 89010000 		.4byte	.LASF5
 292 0065 04       		.uleb128 0x4
 293 0066 04       		.byte	0x4
 294 0067 07       		.byte	0x7
 295 0068 5A000000 		.4byte	.LASF6
 296 006c 04       		.uleb128 0x4
 297 006d 08       		.byte	0x8
 298 006e 05       		.byte	0x5
 299 006f F2000000 		.4byte	.LASF7
 300 0073 04       		.uleb128 0x4
 301 0074 08       		.byte	0x8
 302 0075 07       		.byte	0x7
 303 0076 D3000000 		.4byte	.LASF8
 304 007a 05       		.uleb128 0x5
 305 007b 04       		.byte	0x4
 306 007c 03       		.uleb128 0x3
 307 007d 66010000 		.4byte	.LASF10
 308 0081 03       		.byte	0x3
 309 0082 2C       		.byte	0x2c
 310 0083 87000000 		.4byte	0x87
 311 0087 06       		.uleb128 0x6
 312 0088 04       		.byte	0x4
 313 0089 8D000000 		.4byte	0x8d
 314 008d 07       		.uleb128 0x7
 315 008e 01       		.byte	0x1
 316 008f 7A000000 		.4byte	0x7a
 317 0093 9D000000 		.4byte	0x9d
 318 0097 08       		.uleb128 0x8
 319 0098 30000000 		.4byte	0x30
 320 009c 00       		.byte	0
 321 009d 09       		.uleb128 0x9
 322 009e 3A000000 		.4byte	.LASF17
 323 00a2 04       		.byte	0x4
 324 00a3 04       		.byte	0x4
 325 00a4 2C       		.byte	0x2c
 326 00a5 B8000000 		.4byte	0xb8
 327 00a9 0A       		.uleb128 0xa
 328 00aa EA000000 		.4byte	.LASF11
 329 00ae 04       		.byte	0x4
 330 00af 2D       		.byte	0x2d
 331 00b0 B8000000 		.4byte	0xb8
ARM GAS  /tmp/ccZWv9k3.s 			page 7


 332 00b4 02       		.byte	0x2
 333 00b5 23       		.byte	0x23
 334 00b6 00       		.uleb128 0
 335 00b7 00       		.byte	0
 336 00b8 06       		.uleb128 0x6
 337 00b9 04       		.byte	0x4
 338 00ba 9D000000 		.4byte	0x9d
 339 00be 0B       		.uleb128 0xb
 340 00bf 0C       		.byte	0xc
 341 00c0 04       		.byte	0x4
 342 00c1 34       		.byte	0x34
 343 00c2 F1000000 		.4byte	0xf1
 344 00c6 0A       		.uleb128 0xa
 345 00c7 A3010000 		.4byte	.LASF12
 346 00cb 04       		.byte	0x4
 347 00cc 35       		.byte	0x35
 348 00cd B8000000 		.4byte	0xb8
 349 00d1 02       		.byte	0x2
 350 00d2 23       		.byte	0x23
 351 00d3 00       		.uleb128 0
 352 00d4 0A       		.uleb128 0xa
 353 00d5 1A000000 		.4byte	.LASF13
 354 00d9 04       		.byte	0x4
 355 00da 36       		.byte	0x36
 356 00db 30000000 		.4byte	0x30
 357 00df 02       		.byte	0x2
 358 00e0 23       		.byte	0x23
 359 00e1 04       		.uleb128 0x4
 360 00e2 0A       		.uleb128 0xa
 361 00e3 73010000 		.4byte	.LASF14
 362 00e7 04       		.byte	0x4
 363 00e8 38       		.byte	0x38
 364 00e9 7C000000 		.4byte	0x7c
 365 00ed 02       		.byte	0x2
 366 00ee 23       		.byte	0x23
 367 00ef 08       		.uleb128 0x8
 368 00f0 00       		.byte	0
 369 00f1 03       		.uleb128 0x3
 370 00f2 B0000000 		.4byte	.LASF15
 371 00f6 04       		.byte	0x4
 372 00f7 3A       		.byte	0x3a
 373 00f8 BE000000 		.4byte	0xbe
 374 00fc 06       		.uleb128 0x6
 375 00fd 04       		.byte	0x4
 376 00fe 02010000 		.4byte	0x102
 377 0102 0C       		.uleb128 0xc
 378 0103 07010000 		.4byte	0x107
 379 0107 04       		.uleb128 0x4
 380 0108 01       		.byte	0x1
 381 0109 08       		.byte	0x8
 382 010a 92010000 		.4byte	.LASF16
 383 010e 09       		.uleb128 0x9
 384 010f 31000000 		.4byte	.LASF18
 385 0113 10       		.byte	0x10
 386 0114 05       		.byte	0x5
 387 0115 46       		.byte	0x46
 388 0116 53010000 		.4byte	0x153
ARM GAS  /tmp/ccZWv9k3.s 			page 8


 389 011a 0A       		.uleb128 0xa
 390 011b 61010000 		.4byte	.LASF19
 391 011f 05       		.byte	0x5
 392 0120 47       		.byte	0x47
 393 0121 FC000000 		.4byte	0xfc
 394 0125 02       		.byte	0x2
 395 0126 23       		.byte	0x23
 396 0127 00       		.uleb128 0
 397 0128 0A       		.uleb128 0xa
 398 0129 14000000 		.4byte	.LASF20
 399 012d 05       		.byte	0x5
 400 012e 48       		.byte	0x48
 401 012f 55010000 		.4byte	0x155
 402 0133 02       		.byte	0x2
 403 0134 23       		.byte	0x23
 404 0135 04       		.uleb128 0x4
 405 0136 0A       		.uleb128 0xa
 406 0137 6C000000 		.4byte	.LASF21
 407 013b 05       		.byte	0x5
 408 013c 49       		.byte	0x49
 409 013d 55010000 		.4byte	0x155
 410 0141 02       		.byte	0x2
 411 0142 23       		.byte	0x23
 412 0143 08       		.uleb128 0x8
 413 0144 0A       		.uleb128 0xa
 414 0145 29000000 		.4byte	.LASF22
 415 0149 05       		.byte	0x5
 416 014a 4A       		.byte	0x4a
 417 014b 55010000 		.4byte	0x155
 418 014f 02       		.byte	0x2
 419 0150 23       		.byte	0x23
 420 0151 0C       		.uleb128 0xc
 421 0152 00       		.byte	0
 422 0153 0D       		.uleb128 0xd
 423 0154 01       		.byte	0x1
 424 0155 06       		.uleb128 0x6
 425 0156 04       		.byte	0x4
 426 0157 53010000 		.4byte	0x153
 427 015b 0E       		.uleb128 0xe
 428 015c 46000000 		.4byte	.LASF28
 429 0160 01       		.byte	0x1
 430 0161 52       		.byte	0x52
 431 0162 01       		.byte	0x1
 432 0163 01       		.byte	0x1
 433 0164 72010000 		.4byte	0x172
 434 0168 0F       		.uleb128 0xf
 435 0169 6900     		.ascii	"i\000"
 436 016b 01       		.byte	0x1
 437 016c 53       		.byte	0x53
 438 016d 29000000 		.4byte	0x29
 439 0171 00       		.byte	0
 440 0172 10       		.uleb128 0x10
 441 0173 88000000 		.4byte	.LASF29
 442 0177 01       		.byte	0x1
 443 0178 47       		.byte	0x47
 444 0179 01       		.byte	0x1
 445 017a 7A000000 		.4byte	0x7a
ARM GAS  /tmp/ccZWv9k3.s 			page 9


 446 017e 00000000 		.4byte	.LFB7
 447 0182 04000000 		.4byte	.LFE7
 448 0186 02       		.byte	0x2
 449 0187 7D       		.byte	0x7d
 450 0188 00       		.sleb128 0
 451 0189 9D010000 		.4byte	0x19d
 452 018d 11       		.uleb128 0x11
 453 018e 55000000 		.4byte	.LASF30
 454 0192 01       		.byte	0x1
 455 0193 47       		.byte	0x47
 456 0194 30000000 		.4byte	0x30
 457 0198 00000000 		.4byte	.LLST0
 458 019c 00       		.byte	0
 459 019d 12       		.uleb128 0x12
 460 019e 07000000 		.4byte	.LASF31
 461 01a2 01       		.byte	0x1
 462 01a3 4D       		.byte	0x4d
 463 01a4 01       		.byte	0x1
 464 01a5 00000000 		.4byte	.LFB8
 465 01a9 12000000 		.4byte	.LFE8
 466 01ad 02       		.byte	0x2
 467 01ae 7D       		.byte	0x7d
 468 01af 00       		.sleb128 0
 469 01b0 13       		.uleb128 0x13
 470 01b1 5B010000 		.4byte	0x15b
 471 01b5 00000000 		.4byte	.LFB9
 472 01b9 26010000 		.4byte	.LFE9
 473 01bd 13000000 		.4byte	.LLST1
 474 01c1 EA010000 		.4byte	0x1ea
 475 01c5 14       		.uleb128 0x14
 476 01c6 68010000 		.4byte	0x168
 477 01ca 33000000 		.4byte	.LLST2
 478 01ce 15       		.uleb128 0x15
 479 01cf 5B010000 		.4byte	0x15b
 480 01d3 F2000000 		.4byte	.LBB4
 481 01d7 00000000 		.4byte	.Ldebug_ranges0+0
 482 01db 01       		.byte	0x1
 483 01dc 52       		.byte	0x52
 484 01dd 16       		.uleb128 0x16
 485 01de 18000000 		.4byte	.Ldebug_ranges0+0x18
 486 01e2 17       		.uleb128 0x17
 487 01e3 68010000 		.4byte	0x168
 488 01e7 00       		.byte	0
 489 01e8 00       		.byte	0
 490 01e9 00       		.byte	0
 491 01ea 18       		.uleb128 0x18
 492 01eb 7A000000 		.4byte	0x7a
 493 01ef F5010000 		.4byte	0x1f5
 494 01f3 19       		.uleb128 0x19
 495 01f4 00       		.byte	0
 496 01f5 1A       		.uleb128 0x1a
 497 01f6 776100   		.ascii	"wa\000"
 498 01f9 05       		.byte	0x5
 499 01fa B2       		.byte	0xb2
 500 01fb 01020000 		.4byte	0x201
 501 01ff 01       		.byte	0x1
 502 0200 01       		.byte	0x1
ARM GAS  /tmp/ccZWv9k3.s 			page 10


 503 0201 0C       		.uleb128 0xc
 504 0202 EA010000 		.4byte	0x1ea
 505 0206 1B       		.uleb128 0x1b
 506 0207 6D703100 		.ascii	"mp1\000"
 507 020b 01       		.byte	0x1
 508 020c 3C       		.byte	0x3c
 509 020d F1000000 		.4byte	0xf1
 510 0211 05       		.byte	0x5
 511 0212 03       		.byte	0x3
 512 0213 00000000 		.4byte	mp1
 513 0217 1C       		.uleb128 0x1c
 514 0218 BB000000 		.4byte	.LASF23
 515 021c 01       		.byte	0x1
 516 021d 65       		.byte	0x65
 517 021e 24020000 		.4byte	0x224
 518 0222 01       		.byte	0x1
 519 0223 01       		.byte	0x1
 520 0224 0C       		.uleb128 0xc
 521 0225 0E010000 		.4byte	0x10e
 522 0229 1A       		.uleb128 0x1a
 523 022a 776100   		.ascii	"wa\000"
 524 022d 05       		.byte	0x5
 525 022e B2       		.byte	0xb2
 526 022f 35020000 		.4byte	0x235
 527 0233 01       		.byte	0x1
 528 0234 01       		.byte	0x1
 529 0235 0C       		.uleb128 0xc
 530 0236 EA010000 		.4byte	0x1ea
 531 023a 1D       		.uleb128 0x1d
 532 023b BB000000 		.4byte	.LASF23
 533 023f 01       		.byte	0x1
 534 0240 65       		.byte	0x65
 535 0241 24020000 		.4byte	0x224
 536 0245 01       		.byte	0x1
 537 0246 05       		.byte	0x5
 538 0247 03       		.byte	0x3
 539 0248 00000000 		.4byte	testpools1
 540 024c 18       		.uleb128 0x18
 541 024d 5C020000 		.4byte	0x25c
 542 0251 5C020000 		.4byte	0x25c
 543 0255 1E       		.uleb128 0x1e
 544 0256 3B000000 		.4byte	0x3b
 545 025a 01       		.byte	0x1
 546 025b 00       		.byte	0
 547 025c 06       		.uleb128 0x6
 548 025d 04       		.byte	0x4
 549 025e 24020000 		.4byte	0x224
 550 0262 1D       		.uleb128 0x1d
 551 0263 AB010000 		.4byte	.LASF24
 552 0267 01       		.byte	0x1
 553 0268 71       		.byte	0x71
 554 0269 74020000 		.4byte	0x274
 555 026d 01       		.byte	0x1
 556 026e 05       		.byte	0x5
 557 026f 03       		.byte	0x3
 558 0270 00000000 		.4byte	patternpools
 559 0274 0C       		.uleb128 0xc
ARM GAS  /tmp/ccZWv9k3.s 			page 11


 560 0275 4C020000 		.4byte	0x24c
 561 0279 00       		.byte	0
 562              		.section	.debug_abbrev,"",%progbits
 563              	.Ldebug_abbrev0:
 564 0000 01       		.uleb128 0x1
 565 0001 11       		.uleb128 0x11
 566 0002 01       		.byte	0x1
 567 0003 25       		.uleb128 0x25
 568 0004 0E       		.uleb128 0xe
 569 0005 13       		.uleb128 0x13
 570 0006 0B       		.uleb128 0xb
 571 0007 03       		.uleb128 0x3
 572 0008 0E       		.uleb128 0xe
 573 0009 1B       		.uleb128 0x1b
 574 000a 0E       		.uleb128 0xe
 575 000b 11       		.uleb128 0x11
 576 000c 01       		.uleb128 0x1
 577 000d 52       		.uleb128 0x52
 578 000e 01       		.uleb128 0x1
 579 000f 55       		.uleb128 0x55
 580 0010 06       		.uleb128 0x6
 581 0011 10       		.uleb128 0x10
 582 0012 06       		.uleb128 0x6
 583 0013 00       		.byte	0
 584 0014 00       		.byte	0
 585 0015 02       		.uleb128 0x2
 586 0016 24       		.uleb128 0x24
 587 0017 00       		.byte	0
 588 0018 0B       		.uleb128 0xb
 589 0019 0B       		.uleb128 0xb
 590 001a 3E       		.uleb128 0x3e
 591 001b 0B       		.uleb128 0xb
 592 001c 03       		.uleb128 0x3
 593 001d 08       		.uleb128 0x8
 594 001e 00       		.byte	0
 595 001f 00       		.byte	0
 596 0020 03       		.uleb128 0x3
 597 0021 16       		.uleb128 0x16
 598 0022 00       		.byte	0
 599 0023 03       		.uleb128 0x3
 600 0024 0E       		.uleb128 0xe
 601 0025 3A       		.uleb128 0x3a
 602 0026 0B       		.uleb128 0xb
 603 0027 3B       		.uleb128 0x3b
 604 0028 0B       		.uleb128 0xb
 605 0029 49       		.uleb128 0x49
 606 002a 13       		.uleb128 0x13
 607 002b 00       		.byte	0
 608 002c 00       		.byte	0
 609 002d 04       		.uleb128 0x4
 610 002e 24       		.uleb128 0x24
 611 002f 00       		.byte	0
 612 0030 0B       		.uleb128 0xb
 613 0031 0B       		.uleb128 0xb
 614 0032 3E       		.uleb128 0x3e
 615 0033 0B       		.uleb128 0xb
 616 0034 03       		.uleb128 0x3
ARM GAS  /tmp/ccZWv9k3.s 			page 12


 617 0035 0E       		.uleb128 0xe
 618 0036 00       		.byte	0
 619 0037 00       		.byte	0
 620 0038 05       		.uleb128 0x5
 621 0039 0F       		.uleb128 0xf
 622 003a 00       		.byte	0
 623 003b 0B       		.uleb128 0xb
 624 003c 0B       		.uleb128 0xb
 625 003d 00       		.byte	0
 626 003e 00       		.byte	0
 627 003f 06       		.uleb128 0x6
 628 0040 0F       		.uleb128 0xf
 629 0041 00       		.byte	0
 630 0042 0B       		.uleb128 0xb
 631 0043 0B       		.uleb128 0xb
 632 0044 49       		.uleb128 0x49
 633 0045 13       		.uleb128 0x13
 634 0046 00       		.byte	0
 635 0047 00       		.byte	0
 636 0048 07       		.uleb128 0x7
 637 0049 15       		.uleb128 0x15
 638 004a 01       		.byte	0x1
 639 004b 27       		.uleb128 0x27
 640 004c 0C       		.uleb128 0xc
 641 004d 49       		.uleb128 0x49
 642 004e 13       		.uleb128 0x13
 643 004f 01       		.uleb128 0x1
 644 0050 13       		.uleb128 0x13
 645 0051 00       		.byte	0
 646 0052 00       		.byte	0
 647 0053 08       		.uleb128 0x8
 648 0054 05       		.uleb128 0x5
 649 0055 00       		.byte	0
 650 0056 49       		.uleb128 0x49
 651 0057 13       		.uleb128 0x13
 652 0058 00       		.byte	0
 653 0059 00       		.byte	0
 654 005a 09       		.uleb128 0x9
 655 005b 13       		.uleb128 0x13
 656 005c 01       		.byte	0x1
 657 005d 03       		.uleb128 0x3
 658 005e 0E       		.uleb128 0xe
 659 005f 0B       		.uleb128 0xb
 660 0060 0B       		.uleb128 0xb
 661 0061 3A       		.uleb128 0x3a
 662 0062 0B       		.uleb128 0xb
 663 0063 3B       		.uleb128 0x3b
 664 0064 0B       		.uleb128 0xb
 665 0065 01       		.uleb128 0x1
 666 0066 13       		.uleb128 0x13
 667 0067 00       		.byte	0
 668 0068 00       		.byte	0
 669 0069 0A       		.uleb128 0xa
 670 006a 0D       		.uleb128 0xd
 671 006b 00       		.byte	0
 672 006c 03       		.uleb128 0x3
 673 006d 0E       		.uleb128 0xe
ARM GAS  /tmp/ccZWv9k3.s 			page 13


 674 006e 3A       		.uleb128 0x3a
 675 006f 0B       		.uleb128 0xb
 676 0070 3B       		.uleb128 0x3b
 677 0071 0B       		.uleb128 0xb
 678 0072 49       		.uleb128 0x49
 679 0073 13       		.uleb128 0x13
 680 0074 38       		.uleb128 0x38
 681 0075 0A       		.uleb128 0xa
 682 0076 00       		.byte	0
 683 0077 00       		.byte	0
 684 0078 0B       		.uleb128 0xb
 685 0079 13       		.uleb128 0x13
 686 007a 01       		.byte	0x1
 687 007b 0B       		.uleb128 0xb
 688 007c 0B       		.uleb128 0xb
 689 007d 3A       		.uleb128 0x3a
 690 007e 0B       		.uleb128 0xb
 691 007f 3B       		.uleb128 0x3b
 692 0080 0B       		.uleb128 0xb
 693 0081 01       		.uleb128 0x1
 694 0082 13       		.uleb128 0x13
 695 0083 00       		.byte	0
 696 0084 00       		.byte	0
 697 0085 0C       		.uleb128 0xc
 698 0086 26       		.uleb128 0x26
 699 0087 00       		.byte	0
 700 0088 49       		.uleb128 0x49
 701 0089 13       		.uleb128 0x13
 702 008a 00       		.byte	0
 703 008b 00       		.byte	0
 704 008c 0D       		.uleb128 0xd
 705 008d 15       		.uleb128 0x15
 706 008e 00       		.byte	0
 707 008f 27       		.uleb128 0x27
 708 0090 0C       		.uleb128 0xc
 709 0091 00       		.byte	0
 710 0092 00       		.byte	0
 711 0093 0E       		.uleb128 0xe
 712 0094 2E       		.uleb128 0x2e
 713 0095 01       		.byte	0x1
 714 0096 03       		.uleb128 0x3
 715 0097 0E       		.uleb128 0xe
 716 0098 3A       		.uleb128 0x3a
 717 0099 0B       		.uleb128 0xb
 718 009a 3B       		.uleb128 0x3b
 719 009b 0B       		.uleb128 0xb
 720 009c 27       		.uleb128 0x27
 721 009d 0C       		.uleb128 0xc
 722 009e 20       		.uleb128 0x20
 723 009f 0B       		.uleb128 0xb
 724 00a0 01       		.uleb128 0x1
 725 00a1 13       		.uleb128 0x13
 726 00a2 00       		.byte	0
 727 00a3 00       		.byte	0
 728 00a4 0F       		.uleb128 0xf
 729 00a5 34       		.uleb128 0x34
 730 00a6 00       		.byte	0
ARM GAS  /tmp/ccZWv9k3.s 			page 14


 731 00a7 03       		.uleb128 0x3
 732 00a8 08       		.uleb128 0x8
 733 00a9 3A       		.uleb128 0x3a
 734 00aa 0B       		.uleb128 0xb
 735 00ab 3B       		.uleb128 0x3b
 736 00ac 0B       		.uleb128 0xb
 737 00ad 49       		.uleb128 0x49
 738 00ae 13       		.uleb128 0x13
 739 00af 00       		.byte	0
 740 00b0 00       		.byte	0
 741 00b1 10       		.uleb128 0x10
 742 00b2 2E       		.uleb128 0x2e
 743 00b3 01       		.byte	0x1
 744 00b4 03       		.uleb128 0x3
 745 00b5 0E       		.uleb128 0xe
 746 00b6 3A       		.uleb128 0x3a
 747 00b7 0B       		.uleb128 0xb
 748 00b8 3B       		.uleb128 0x3b
 749 00b9 0B       		.uleb128 0xb
 750 00ba 27       		.uleb128 0x27
 751 00bb 0C       		.uleb128 0xc
 752 00bc 49       		.uleb128 0x49
 753 00bd 13       		.uleb128 0x13
 754 00be 11       		.uleb128 0x11
 755 00bf 01       		.uleb128 0x1
 756 00c0 12       		.uleb128 0x12
 757 00c1 01       		.uleb128 0x1
 758 00c2 40       		.uleb128 0x40
 759 00c3 0A       		.uleb128 0xa
 760 00c4 01       		.uleb128 0x1
 761 00c5 13       		.uleb128 0x13
 762 00c6 00       		.byte	0
 763 00c7 00       		.byte	0
 764 00c8 11       		.uleb128 0x11
 765 00c9 05       		.uleb128 0x5
 766 00ca 00       		.byte	0
 767 00cb 03       		.uleb128 0x3
 768 00cc 0E       		.uleb128 0xe
 769 00cd 3A       		.uleb128 0x3a
 770 00ce 0B       		.uleb128 0xb
 771 00cf 3B       		.uleb128 0x3b
 772 00d0 0B       		.uleb128 0xb
 773 00d1 49       		.uleb128 0x49
 774 00d2 13       		.uleb128 0x13
 775 00d3 02       		.uleb128 0x2
 776 00d4 06       		.uleb128 0x6
 777 00d5 00       		.byte	0
 778 00d6 00       		.byte	0
 779 00d7 12       		.uleb128 0x12
 780 00d8 2E       		.uleb128 0x2e
 781 00d9 00       		.byte	0
 782 00da 03       		.uleb128 0x3
 783 00db 0E       		.uleb128 0xe
 784 00dc 3A       		.uleb128 0x3a
 785 00dd 0B       		.uleb128 0xb
 786 00de 3B       		.uleb128 0x3b
 787 00df 0B       		.uleb128 0xb
ARM GAS  /tmp/ccZWv9k3.s 			page 15


 788 00e0 27       		.uleb128 0x27
 789 00e1 0C       		.uleb128 0xc
 790 00e2 11       		.uleb128 0x11
 791 00e3 01       		.uleb128 0x1
 792 00e4 12       		.uleb128 0x12
 793 00e5 01       		.uleb128 0x1
 794 00e6 40       		.uleb128 0x40
 795 00e7 0A       		.uleb128 0xa
 796 00e8 00       		.byte	0
 797 00e9 00       		.byte	0
 798 00ea 13       		.uleb128 0x13
 799 00eb 2E       		.uleb128 0x2e
 800 00ec 01       		.byte	0x1
 801 00ed 31       		.uleb128 0x31
 802 00ee 13       		.uleb128 0x13
 803 00ef 11       		.uleb128 0x11
 804 00f0 01       		.uleb128 0x1
 805 00f1 12       		.uleb128 0x12
 806 00f2 01       		.uleb128 0x1
 807 00f3 40       		.uleb128 0x40
 808 00f4 06       		.uleb128 0x6
 809 00f5 01       		.uleb128 0x1
 810 00f6 13       		.uleb128 0x13
 811 00f7 00       		.byte	0
 812 00f8 00       		.byte	0
 813 00f9 14       		.uleb128 0x14
 814 00fa 34       		.uleb128 0x34
 815 00fb 00       		.byte	0
 816 00fc 31       		.uleb128 0x31
 817 00fd 13       		.uleb128 0x13
 818 00fe 02       		.uleb128 0x2
 819 00ff 06       		.uleb128 0x6
 820 0100 00       		.byte	0
 821 0101 00       		.byte	0
 822 0102 15       		.uleb128 0x15
 823 0103 1D       		.uleb128 0x1d
 824 0104 01       		.byte	0x1
 825 0105 31       		.uleb128 0x31
 826 0106 13       		.uleb128 0x13
 827 0107 52       		.uleb128 0x52
 828 0108 01       		.uleb128 0x1
 829 0109 55       		.uleb128 0x55
 830 010a 06       		.uleb128 0x6
 831 010b 58       		.uleb128 0x58
 832 010c 0B       		.uleb128 0xb
 833 010d 59       		.uleb128 0x59
 834 010e 0B       		.uleb128 0xb
 835 010f 00       		.byte	0
 836 0110 00       		.byte	0
 837 0111 16       		.uleb128 0x16
 838 0112 0B       		.uleb128 0xb
 839 0113 01       		.byte	0x1
 840 0114 55       		.uleb128 0x55
 841 0115 06       		.uleb128 0x6
 842 0116 00       		.byte	0
 843 0117 00       		.byte	0
 844 0118 17       		.uleb128 0x17
ARM GAS  /tmp/ccZWv9k3.s 			page 16


 845 0119 34       		.uleb128 0x34
 846 011a 00       		.byte	0
 847 011b 31       		.uleb128 0x31
 848 011c 13       		.uleb128 0x13
 849 011d 00       		.byte	0
 850 011e 00       		.byte	0
 851 011f 18       		.uleb128 0x18
 852 0120 01       		.uleb128 0x1
 853 0121 01       		.byte	0x1
 854 0122 49       		.uleb128 0x49
 855 0123 13       		.uleb128 0x13
 856 0124 01       		.uleb128 0x1
 857 0125 13       		.uleb128 0x13
 858 0126 00       		.byte	0
 859 0127 00       		.byte	0
 860 0128 19       		.uleb128 0x19
 861 0129 21       		.uleb128 0x21
 862 012a 00       		.byte	0
 863 012b 00       		.byte	0
 864 012c 00       		.byte	0
 865 012d 1A       		.uleb128 0x1a
 866 012e 34       		.uleb128 0x34
 867 012f 00       		.byte	0
 868 0130 03       		.uleb128 0x3
 869 0131 08       		.uleb128 0x8
 870 0132 3A       		.uleb128 0x3a
 871 0133 0B       		.uleb128 0xb
 872 0134 3B       		.uleb128 0x3b
 873 0135 0B       		.uleb128 0xb
 874 0136 49       		.uleb128 0x49
 875 0137 13       		.uleb128 0x13
 876 0138 3F       		.uleb128 0x3f
 877 0139 0C       		.uleb128 0xc
 878 013a 3C       		.uleb128 0x3c
 879 013b 0C       		.uleb128 0xc
 880 013c 00       		.byte	0
 881 013d 00       		.byte	0
 882 013e 1B       		.uleb128 0x1b
 883 013f 34       		.uleb128 0x34
 884 0140 00       		.byte	0
 885 0141 03       		.uleb128 0x3
 886 0142 08       		.uleb128 0x8
 887 0143 3A       		.uleb128 0x3a
 888 0144 0B       		.uleb128 0xb
 889 0145 3B       		.uleb128 0x3b
 890 0146 0B       		.uleb128 0xb
 891 0147 49       		.uleb128 0x49
 892 0148 13       		.uleb128 0x13
 893 0149 02       		.uleb128 0x2
 894 014a 0A       		.uleb128 0xa
 895 014b 00       		.byte	0
 896 014c 00       		.byte	0
 897 014d 1C       		.uleb128 0x1c
 898 014e 34       		.uleb128 0x34
 899 014f 00       		.byte	0
 900 0150 03       		.uleb128 0x3
 901 0151 0E       		.uleb128 0xe
ARM GAS  /tmp/ccZWv9k3.s 			page 17


 902 0152 3A       		.uleb128 0x3a
 903 0153 0B       		.uleb128 0xb
 904 0154 3B       		.uleb128 0x3b
 905 0155 0B       		.uleb128 0xb
 906 0156 49       		.uleb128 0x49
 907 0157 13       		.uleb128 0x13
 908 0158 3F       		.uleb128 0x3f
 909 0159 0C       		.uleb128 0xc
 910 015a 3C       		.uleb128 0x3c
 911 015b 0C       		.uleb128 0xc
 912 015c 00       		.byte	0
 913 015d 00       		.byte	0
 914 015e 1D       		.uleb128 0x1d
 915 015f 34       		.uleb128 0x34
 916 0160 00       		.byte	0
 917 0161 03       		.uleb128 0x3
 918 0162 0E       		.uleb128 0xe
 919 0163 3A       		.uleb128 0x3a
 920 0164 0B       		.uleb128 0xb
 921 0165 3B       		.uleb128 0x3b
 922 0166 0B       		.uleb128 0xb
 923 0167 49       		.uleb128 0x49
 924 0168 13       		.uleb128 0x13
 925 0169 3F       		.uleb128 0x3f
 926 016a 0C       		.uleb128 0xc
 927 016b 02       		.uleb128 0x2
 928 016c 0A       		.uleb128 0xa
 929 016d 00       		.byte	0
 930 016e 00       		.byte	0
 931 016f 1E       		.uleb128 0x1e
 932 0170 21       		.uleb128 0x21
 933 0171 00       		.byte	0
 934 0172 49       		.uleb128 0x49
 935 0173 13       		.uleb128 0x13
 936 0174 2F       		.uleb128 0x2f
 937 0175 0B       		.uleb128 0xb
 938 0176 00       		.byte	0
 939 0177 00       		.byte	0
 940 0178 00       		.byte	0
 941              		.section	.debug_loc,"",%progbits
 942              	.Ldebug_loc0:
 943              	.LLST0:
 944 0000 00000000 		.4byte	.LVL0
 945 0004 02000000 		.4byte	.LVL1
 946 0008 0100     		.2byte	0x1
 947 000a 50       		.byte	0x50
 948 000b 00000000 		.4byte	0
 949 000f 00000000 		.4byte	0
 950              	.LLST1:
 951 0013 00000000 		.4byte	.LFB9
 952 0017 02000000 		.4byte	.LCFI0
 953 001b 0200     		.2byte	0x2
 954 001d 7D       		.byte	0x7d
 955 001e 00       		.sleb128 0
 956 001f 02000000 		.4byte	.LCFI0
 957 0023 26010000 		.4byte	.LFE9
 958 0027 0200     		.2byte	0x2
ARM GAS  /tmp/ccZWv9k3.s 			page 18


 959 0029 7D       		.byte	0x7d
 960 002a 08       		.sleb128 8
 961 002b 00000000 		.4byte	0
 962 002f 00000000 		.4byte	0
 963              	.LLST2:
 964 0033 00000000 		.4byte	.LVL2
 965 0037 18000000 		.4byte	.LVL3
 966 003b 0200     		.2byte	0x2
 967 003d 30       		.byte	0x30
 968 003e 9F       		.byte	0x9f
 969 003f 18000000 		.4byte	.LVL3
 970 0043 26000000 		.4byte	.LVL4
 971 0047 0200     		.2byte	0x2
 972 0049 31       		.byte	0x31
 973 004a 9F       		.byte	0x9f
 974 004b 26000000 		.4byte	.LVL4
 975 004f 34000000 		.4byte	.LVL5
 976 0053 0200     		.2byte	0x2
 977 0055 32       		.byte	0x32
 978 0056 9F       		.byte	0x9f
 979 0057 34000000 		.4byte	.LVL5
 980 005b 42000000 		.4byte	.LVL6
 981 005f 0200     		.2byte	0x2
 982 0061 33       		.byte	0x33
 983 0062 9F       		.byte	0x9f
 984 0063 42000000 		.4byte	.LVL6
 985 0067 50000000 		.4byte	.LVL7
 986 006b 0200     		.2byte	0x2
 987 006d 34       		.byte	0x34
 988 006e 9F       		.byte	0x9f
 989 006f 50000000 		.4byte	.LVL7
 990 0073 6C000000 		.4byte	.LVL8
 991 0077 0200     		.2byte	0x2
 992 0079 35       		.byte	0x35
 993 007a 9F       		.byte	0x9f
 994 007b 6C000000 		.4byte	.LVL8
 995 007f 86000000 		.4byte	.LVL9
 996 0083 0200     		.2byte	0x2
 997 0085 31       		.byte	0x31
 998 0086 9F       		.byte	0x9f
 999 0087 86000000 		.4byte	.LVL9
 1000 008b A0000000 		.4byte	.LVL10
 1001 008f 0200     		.2byte	0x2
 1002 0091 32       		.byte	0x32
 1003 0092 9F       		.byte	0x9f
 1004 0093 A0000000 		.4byte	.LVL10
 1005 0097 BA000000 		.4byte	.LVL11
 1006 009b 0200     		.2byte	0x2
 1007 009d 33       		.byte	0x33
 1008 009e 9F       		.byte	0x9f
 1009 009f BA000000 		.4byte	.LVL11
 1010 00a3 D4000000 		.4byte	.LVL12
 1011 00a7 0200     		.2byte	0x2
 1012 00a9 34       		.byte	0x34
 1013 00aa 9F       		.byte	0x9f
 1014 00ab D4000000 		.4byte	.LVL12
 1015 00af F0000000 		.4byte	.LVL13
ARM GAS  /tmp/ccZWv9k3.s 			page 19


 1016 00b3 0200     		.2byte	0x2
 1017 00b5 35       		.byte	0x35
 1018 00b6 9F       		.byte	0x9f
 1019 00b7 F2000000 		.4byte	.LVL14
 1020 00bb 26010000 		.4byte	.LFE9
 1021 00bf 0200     		.2byte	0x2
 1022 00c1 35       		.byte	0x35
 1023 00c2 9F       		.byte	0x9f
 1024 00c3 00000000 		.4byte	0
 1025 00c7 00000000 		.4byte	0
 1026              		.section	.debug_aranges,"",%progbits
 1027 0000 2C000000 		.4byte	0x2c
 1028 0004 0200     		.2byte	0x2
 1029 0006 00000000 		.4byte	.Ldebug_info0
 1030 000a 04       		.byte	0x4
 1031 000b 00       		.byte	0
 1032 000c 0000     		.2byte	0
 1033 000e 0000     		.2byte	0
 1034 0010 00000000 		.4byte	.LFB7
 1035 0014 04000000 		.4byte	.LFE7-.LFB7
 1036 0018 00000000 		.4byte	.LFB8
 1037 001c 12000000 		.4byte	.LFE8-.LFB8
 1038 0020 00000000 		.4byte	.LFB9
 1039 0024 26010000 		.4byte	.LFE9-.LFB9
 1040 0028 00000000 		.4byte	0
 1041 002c 00000000 		.4byte	0
 1042              		.section	.debug_ranges,"",%progbits
 1043              	.Ldebug_ranges0:
 1044 0000 F2000000 		.4byte	.LBB4
 1045 0004 1E010000 		.4byte	.LBE4
 1046 0008 22010000 		.4byte	.LBB7
 1047 000c 26010000 		.4byte	.LBE7
 1048 0010 00000000 		.4byte	0
 1049 0014 00000000 		.4byte	0
 1050 0018 F2000000 		.4byte	.LBB5
 1051 001c 1E010000 		.4byte	.LBE5
 1052 0020 22010000 		.4byte	.LBB6
 1053 0024 26010000 		.4byte	.LBE6
 1054 0028 00000000 		.4byte	0
 1055 002c 00000000 		.4byte	0
 1056 0030 00000000 		.4byte	.LFB7
 1057 0034 04000000 		.4byte	.LFE7
 1058 0038 00000000 		.4byte	.LFB8
 1059 003c 12000000 		.4byte	.LFE8
 1060 0040 00000000 		.4byte	.LFB9
 1061 0044 26010000 		.4byte	.LFE9
 1062 0048 00000000 		.4byte	0
 1063 004c 00000000 		.4byte	0
 1064              		.section	.debug_line,"",%progbits
 1065              	.Ldebug_line0:
 1066 0000 FA000000 		.section	.debug_str,"MS",%progbits,1
 1066      0200B500 
 1066      00000201 
 1066      FB0E0D00 
 1066      01010101 
 1067              	.LASF9:
 1068 0000 73697A65 		.ascii	"size_t\000"
ARM GAS  /tmp/ccZWv9k3.s 			page 20


 1068      5F7400
 1069              	.LASF31:
 1070 0007 706F6F6C 		.ascii	"pools1_setup\000"
 1070      73315F73 
 1070      65747570 
 1070      00
 1071              	.LASF20:
 1072 0014 73657475 		.ascii	"setup\000"
 1072      7000
 1073              	.LASF13:
 1074 001a 6D705F6F 		.ascii	"mp_object_size\000"
 1074      626A6563 
 1074      745F7369 
 1074      7A6500
 1075              	.LASF22:
 1076 0029 65786563 		.ascii	"execute\000"
 1076      75746500 
 1077              	.LASF18:
 1078 0031 74657374 		.ascii	"testcase\000"
 1078      63617365 
 1078      00
 1079              	.LASF17:
 1080 003a 706F6F6C 		.ascii	"pool_header\000"
 1080      5F686561 
 1080      64657200 
 1081              	.LASF28:
 1082 0046 706F6F6C 		.ascii	"pools1_execute\000"
 1082      73315F65 
 1082      78656375 
 1082      746500
 1083              	.LASF30:
 1084 0055 73697A65 		.ascii	"size\000"
 1084      00
 1085              	.LASF6:
 1086 005a 6C6F6E67 		.ascii	"long unsigned int\000"
 1086      20756E73 
 1086      69676E65 
 1086      6420696E 
 1086      7400
 1087              	.LASF21:
 1088 006c 74656172 		.ascii	"teardown\000"
 1088      646F776E 
 1088      00
 1089              	.LASF4:
 1090 0075 73686F72 		.ascii	"short unsigned int\000"
 1090      7420756E 
 1090      7369676E 
 1090      65642069 
 1090      6E7400
 1091              	.LASF29:
 1092 0088 6E756C6C 		.ascii	"null_provider\000"
 1092      5F70726F 
 1092      76696465 
 1092      7200
 1093              	.LASF25:
 1094 0096 474E5520 		.ascii	"GNU C 4.6.1\000"
 1094      4320342E 
ARM GAS  /tmp/ccZWv9k3.s 			page 21


 1094      362E3100 
 1095              	.LASF2:
 1096 00a2 756E7369 		.ascii	"unsigned char\000"
 1096      676E6564 
 1096      20636861 
 1096      7200
 1097              	.LASF15:
 1098 00b0 4D656D6F 		.ascii	"MemoryPool\000"
 1098      7279506F 
 1098      6F6C00
 1099              	.LASF23:
 1100 00bb 74657374 		.ascii	"testpools1\000"
 1100      706F6F6C 
 1100      733100
 1101              	.LASF0:
 1102 00c6 756E7369 		.ascii	"unsigned int\000"
 1102      676E6564 
 1102      20696E74 
 1102      00
 1103              	.LASF8:
 1104 00d3 6C6F6E67 		.ascii	"long long unsigned int\000"
 1104      206C6F6E 
 1104      6720756E 
 1104      7369676E 
 1104      65642069 
 1105              	.LASF11:
 1106 00ea 70685F6E 		.ascii	"ph_next\000"
 1106      65787400 
 1107              	.LASF7:
 1108 00f2 6C6F6E67 		.ascii	"long long int\000"
 1108      206C6F6E 
 1108      6720696E 
 1108      7400
 1109              	.LASF26:
 1110 0100 2E2E2F2E 		.ascii	"../../test/testpools.c\000"
 1110      2E2F7465 
 1110      73742F74 
 1110      65737470 
 1110      6F6F6C73 
 1111              	.LASF27:
 1112 0117 2F686F6D 		.ascii	"/home/kevin/Embedded_Systems/stamp/iflab/develop/Ch"
 1112      652F6B65 
 1112      76696E2F 
 1112      456D6265 
 1112      64646564 
 1113 014a 6962694F 		.ascii	"ibiOS/iflab_code/blink\000"
 1113      532F6966 
 1113      6C61625F 
 1113      636F6465 
 1113      2F626C69 
 1114              	.LASF19:
 1115 0161 6E616D65 		.ascii	"name\000"
 1115      00
 1116              	.LASF10:
 1117 0166 6D656D67 		.ascii	"memgetfunc_t\000"
 1117      65746675 
 1117      6E635F74 
ARM GAS  /tmp/ccZWv9k3.s 			page 22


 1117      00
 1118              	.LASF14:
 1119 0173 6D705F70 		.ascii	"mp_provider\000"
 1119      726F7669 
 1119      64657200 
 1120              	.LASF3:
 1121 017f 73686F72 		.ascii	"short int\000"
 1121      7420696E 
 1121      7400
 1122              	.LASF5:
 1123 0189 6C6F6E67 		.ascii	"long int\000"
 1123      20696E74 
 1123      00
 1124              	.LASF16:
 1125 0192 63686172 		.ascii	"char\000"
 1125      00
 1126              	.LASF1:
 1127 0197 7369676E 		.ascii	"signed char\000"
 1127      65642063 
 1127      68617200 
 1128              	.LASF12:
 1129 01a3 6D705F6E 		.ascii	"mp_next\000"
 1129      65787400 
 1130              	.LASF24:
 1131 01ab 70617474 		.ascii	"patternpools\000"
 1131      65726E70 
 1131      6F6F6C73 
 1131      00
 1132              		.ident	"GCC: (Sourcery CodeBench Lite 2011.09-69) 4.6.1"
ARM GAS  /tmp/ccZWv9k3.s 			page 23


DEFINED SYMBOLS
                            *ABS*:00000000 testpools.c
     /tmp/ccZWv9k3.s:19     .text.null_provider:00000000 $t
     /tmp/ccZWv9k3.s:24     .text.null_provider:00000000 null_provider
     /tmp/ccZWv9k3.s:41     .text.pools1_setup:00000000 $t
     /tmp/ccZWv9k3.s:46     .text.pools1_setup:00000000 pools1_setup
     /tmp/ccZWv9k3.s:222    .data.mp1:00000000 .LANCHOR0
     /tmp/ccZWv9k3.s:65     .text.pools1_execute:00000000 $t
     /tmp/ccZWv9k3.s:70     .text.pools1_execute:00000000 pools1_execute
     /tmp/ccZWv9k3.s:217    .rodata.patternpools:00000000 patternpools
     /tmp/ccZWv9k3.s:233    .rodata.testpools1:00000000 testpools1
     /tmp/ccZWv9k3.s:210    .rodata.str1.4:00000000 $d
     /tmp/ccZWv9k3.s:214    .rodata.patternpools:00000000 $d
     /tmp/ccZWv9k3.s:221    .data.mp1:00000000 $d
     /tmp/ccZWv9k3.s:225    .data.mp1:00000000 mp1
     /tmp/ccZWv9k3.s:230    .rodata.testpools1:00000000 $d
                     .debug_frame:00000010 $d

UNDEFINED SYMBOLS
chPoolInit
wa
chPoolFree
chPoolAlloc
_test_assert
